ELLA KAYE - n_letter_words and a personal (publicly available) package
…
So, here is my personal package, EMK. If you think that n_letter_words might be of use to you, then feel free to install!

Toggle the code

devtools::install_github("EllaKaye/EMK")

Some examples of n_letter_words:

Toggle the code

library(EMK)

n_letter_words(2)

# A tibble: 676 × 1
   word 
   <chr>
 1 AA   
 2 BA   
 3 CA   
 4 DA   
 5 EA   
 6 FA   
 7 GA   
 8 HA   
 9 IA   
10 JA   
# … with 666 more rows
…
